<?xml version="1.0" encoding="UTF-8"?>
<svg width="64px" height="72px" viewBox="0 0 64 72" version="1.1" xmlns="http://www.w3.org/2000/svg" xmlns:xlink="http://www.w3.org/1999/xlink">
    <!-- Generator: Sketch 53.2 (72643) - https://sketchapp.com -->
    <title>Group 62 Copy</title>
    <desc>Created with Sketch.</desc>
    <g id="VDs" stroke="none" stroke-width="1" fill="none" fill-rule="evenodd">
        <g id="Group-62-Copy">
            <path d="M63.4234234,47.5261271 L63.4234234,23.8256337 C63.4234234,19.5471209 61.1960031,15.5933995 57.5811055,13.454689 L37.5540296,1.60444229 C33.9385994,-0.534814097 29.4842914,-0.534814097 25.8693938,1.60444229 L5.84231791,13.454689 C2.2268877,15.5933995 0,19.5471209 0,23.8256337 L0,47.5261271 C0,51.804094 2.2268877,55.7578154 5.84231791,57.8970717 L25.8693938,69.7473185 C29.4842914,71.886029 33.9385994,71.886029 37.5540296,69.7473185 L57.5811055,57.8970717 C61.1960031,55.7578154 63.4234234,51.804094 63.4234234,47.5261271 L35.7410151,61.3513514" id="Fill-2-Copy-6" fill="#F10F85"></path>
            <path d="M38.4049746,47.8013851 L38.4048523,47.8016421 C38.46575,47.8327171 38.7105635,47.8936737 39.0771723,48.0466618 C38.6795032,48.5056261 38.0680809,48.8116023 37.3957609,48.8116023 L33.4823521,48.8116023 L27.0935999,48.8116023 L22.1710385,48.8116023 C20.9780312,48.8116023 20,47.8314993 20,46.6386817 L20,23.2936159 C20,22.3756873 20.5505247,21.5796903 21.4055683,21.184063 C21.6503818,21.0609566 21.956093,21 22.2618041,21 L37.42569,21 C37.7314012,21 38.0072627,21.0621499 38.2819259,21.184063 C39.1071015,21.5199025 39.6576262,22.3159302 39.6576262,23.2338588 L39.6576262,35.7179935 C39.351915,35.810025 39.0772579,35.8709816 38.8324505,35.9319382 L38.2210282,35.1669977 L38.2210282,24.7325975 C38.2210282,24.4875718 38.0681787,24.2425583 37.8544193,24.1206451 C37.7935156,24.0596885 37.671708,24.0286136 37.5797562,24.0286136 L37.5188524,24.0286136 L22.172457,24.0286136 C22.0195953,24.0286136 21.8965955,24.0895702 21.7747879,24.1505267 C21.559824,24.3035148 21.4380165,24.5174595 21.4380165,24.7624791 L21.4380165,26.6903739 L21.4380165,43.6408432 L21.4380165,44.3137461 L21.4380165,44.4667342 C21.4380165,44.9256984 21.8046253,45.2926251 22.2631921,45.2926251 L27.0925116,45.2926251 L27.1235596,45.2926251 L33.6043308,45.2926251 C34.0628976,45.5376508 34.5525246,45.8125399 35.0110914,46.118516 C35.1937844,46.2404231 35.3776941,46.3635295 35.5914535,46.4854427 C35.836267,46.6085553 36.0810805,46.7615434 36.2339361,46.8834565 C36.8764187,47.3424208 37.5487387,47.648397 38.4049746,47.8013851 Z M30.8838682,47.6185154 L30.8838866,47.618501 C31.2206335,47.618501 31.4642468,47.3735059 31.4654409,47.0376358 C31.4654409,46.9157226 31.4343929,46.8236911 31.3734891,46.7316596 C31.3424411,46.7005847 31.3125853,46.670703 31.2815373,46.6396281 C31.1895794,46.5165216 31.0367238,46.455565 30.8838682,46.455565 L28.74389,46.4567605 C28.4990887,46.4567605 28.3163773,46.5786736 28.2244255,46.7627367 C28.1945698,46.8535749 28.1635217,46.9456064 28.1635217,47.0376379 C28.1635217,47.1284762 28.1933775,47.2205077 28.2244255,47.3125392 C28.3462209,47.4966022 28.5301306,47.6185154 28.74389,47.6185154 L30.8838682,47.6185154 Z M48.9816642,44.5587534 C49.1954236,44.9256801 49.1034718,45.3846444 48.7977606,45.6296701 L45.0980439,48.6284816 C44.4866216,49.1185331 43.6303857,49.1185331 42.9891259,48.6595566 C41.0640932,47.1894327 38.6483329,46.669518 38.6483329,46.669518 C38.0369106,46.5476048 37.4863859,46.3635418 36.9358612,45.965528 C36.5692524,45.6906267 36.0187277,45.414526 35.6521188,45.1695003 C34.703925,44.5264607 33.6649962,43.9766827 32.5341705,43.6085321 C32.0445435,43.455544 31.9227482,43.1495678 32.106664,42.6595164 C32.1986158,42.4144967 32.4732728,42.1085144 32.7180864,41.9866135 C33.268611,41.7117123 33.8489731,41.7415939 34.3684376,41.8336254 C34.705209,41.8647004 36.1716444,42.5674787 36.814127,42.8435916 C37.3944891,43.0575363 37.486447,42.5376154 37.4255494,41.925663 C37.3945013,41.6196869 37.3037418,41.3447978 37.1508862,41.0686849 C35.8671438,38.6818258 34.5212809,36.3572635 33.2078234,34.0000229 C32.9021123,33.4801081 33.0239198,32.9291062 33.4824866,32.62313 C33.9410534,32.3171538 34.5524757,32.4091853 34.9190846,32.8681496 C35.438549,33.5111892 35.928176,34.1530048 36.4165802,34.7960444 C36.875147,35.3769096 37.3337137,35.988862 37.8233407,36.6008144 L38.4037028,37.3048044 C38.4037028,37.3048044 41.7977083,35.988862 45.6799346,36.9067906 C45.893694,36.9677472 46.0776037,37.0908536 46.1695616,37.3048044 C46.5970681,38.1008321 47.7291778,40.3036159 48.0038287,42.4143009 C48.1566843,42.9653028 48.3704375,43.4242671 48.4934557,43.7302433 L48.9816642,44.5587534 Z M23.5,29 C23.2238576,29 23,28.7761424 23,28.5 C23,28.2238576 23.2238576,28 23.5,28 L35.8007812,28 C36.0769236,28 36.3007812,28.2238576 36.3007812,28.5 C36.3007812,28.7761424 36.0769236,29 35.8007812,29 L23.5,29 Z M23.5,32 C23.2238576,32 23,31.7761424 23,31.5 C23,31.2238576 23.2238576,31 23.5,31 L35.8007812,31 C36.0769236,31 36.3007812,31.2238576 36.3007812,31.5 C36.3007812,31.7761424 36.0769236,32 35.8007812,32 L23.5,32 Z M23.5,35 C23.2238576,35 23,34.7761424 23,34.5 C23,34.2238576 23.2238576,34 23.5,34 L29.8288131,34 C30.1049555,34 30.3288131,34.2238576 30.3288131,34.5 C30.3288131,34.7761424 30.1049555,35 29.8288131,35 L23.5,35 Z" id="Combined-Shape" fill="#FFFFFF" fill-rule="nonzero"></path>
        </g>
    </g>
</svg>