<svg xmlns="http://www.w3.org/2000/svg" width="70" height="75" viewBox="0 0 70 75">
    <g fill="none" fill-rule="evenodd">
        <path fill="#F10F85" d="M66.423 49.526v-23.7c0-4.279-2.227-8.233-5.842-10.371L40.554 3.605a11.44 11.44 0 0 0-11.685 0L8.842 15.454C5.227 17.593 3 21.547 3 25.825v23.701c0 4.278 2.227 8.232 5.842 10.371l20.027 11.85a11.442 11.442 0 0 0 11.685 0l20.027-11.85c3.615-2.14 5.842-6.093 5.842-10.37"/>
        <path fill="#FFF" d="M36.522 38.202l1.936 1.936 2.228-2.155v.009l1.59-1.537v-.008l.517-.5 5.513-5.332-.944-.976-.944-.977-5.513 5.314-4.383 4.226zm1.354 2.546l-1.93-1.93-1.034 2.956 2.93-.993.034-.033zm-.054-9.23v1.87h-8.17v-1.87h8.17zm1.59-1.598h-11.35v5.066h9.546l1.803-1.735v-3.33zm.736-1.449c.372.034.538.315.538.588v2.958l.372-.355 1.217-1.18V28.87c0-.025-.025-.14-.033-.207a2.113 2.113 0 0 0-.53-1.085 2.128 2.128 0 0 0-1.043-.637c-.165-.041-.314-.05-.48-.066H27.276c-.075.008-.157.008-.215.016a3.514 3.514 0 0 0-.315.067c-.074.024-.157.058-.215.074-.075.025-.15.075-.224.108-.57.281-.968.935-1.06 1.399-.016.107-.032.223-.049.33v17.633c0 .016.025.223.05.33.025.108.066.208.1.315.024.05.057.116.074.166.265.596.993 1.06 1.49 1.134.116.016.231.041.347.05h12.947c.025 0 .215-.025.314-.042a2.16 2.16 0 0 0 1.192-.662c.274-.298.423-.638.497-.927.025-.124.05-.249.066-.373v-7.86l-1.589 1.544v6.126c.008.331-.281.596-.522.596H27.301c-.364-.05-.513-.331-.513-.588V29.067a.757.757 0 0 0 .008-.132c.033-.265.323-.48.521-.464h12.83zm-.75 15.422H28.076v1.59h11.324v-1.59zm-5.661-3.344h-5.662v1.59h5.662v-1.59zm0-3.642h-5.662v1.589h5.662v-1.59z"/>
    </g>
</svg>
