<?xml version="1.0" encoding="UTF-8"?>
<svg width="70px" height="75px" viewBox="0 0 70 75" version="1.1" xmlns="http://www.w3.org/2000/svg" xmlns:xlink="http://www.w3.org/1999/xlink">
    <!-- Generator: Sketch 53.2 (72643) - https://sketchapp.com -->
    <title>icon_API@1x</title>
    <desc>Created with Sketch.</desc>
    <g id="Dev-Journey" stroke="none" stroke-width="1" fill="none" fill-rule="evenodd">
        <g id="1_Homepage" transform="translate(-666.000000, -1007.000000)">
            <g id="Group-29" transform="translate(0.000000, 869.000000)">
                <g id="Group-25" transform="translate(497.000000, 92.000000)">
                    <g id="icon_1" transform="translate(157.000000, 39.000000)">
                        <path d="M78.4234234,56.5261271 L78.4234234,32.8256337 C78.4234234,28.5471209 76.1960031,24.5933995 72.5811055,22.454689 L52.5540296,10.6044423 C48.9385994,8.4651859 44.4842914,8.4651859 40.8693938,10.6044423 L20.8423179,22.454689 C17.2268877,24.5933995 15,28.5471209 15,32.8256337 L15,56.5261271 C15,60.804094 17.2268877,64.7578154 20.8423179,66.8970717 L40.8693938,78.7473185 C44.4842914,80.886029 48.9385994,80.886029 52.5540296,78.7473185 L72.5811055,66.8970717 C76.1960031,64.7578154 78.4234234,60.804094 78.4234234,56.5261271" id="Fill-2" fill="#F10F85"></path>
                        <g id="noun_Document_16385" transform="translate(37.000000, 33.000000)">
                            <path d="M12.75,8.625 C12.95625,8.625 13.125,8.79375 13.125,9 C13.125,9.20625 12.95625,9.375 12.75,9.375 L3.5625,9.375 C3.35625,9.375 3.1875,9.20625 3.1875,9 C3.1875,8.79375 3.35625,8.625 3.5625,8.625 L12.75,8.625 Z M12.75,10.125 C12.95625,10.125 13.125,10.29375 13.125,10.5 C13.125,10.70625 12.95625,10.875 12.75,10.875 L3.5625,10.875 C3.35625,10.875 3.1875,10.70625 3.1875,10.5 C3.1875,10.29375 3.35625,10.125 3.5625,10.125 L12.75,10.125 Z M13.125,11.98125 C12.58125,12.0375 12.05625,12.16875 11.55,12.375 L3.5625,12.375 C3.35625,12.375 3.1875,12.20625 3.1875,12 C3.1875,11.79375 3.35625,11.625 3.5625,11.625 L12.75,11.625 C12.95625,11.625 13.10625,11.79375 13.125,11.98125 Z M10.18125,13.125 C9.88125,13.35 9.58125,13.59375 9.31875,13.875 L3.5625,13.875 C3.35625,13.875 3.1875,13.70625 3.1875,13.5 C3.1875,13.29375 3.35625,13.125 3.5625,13.125 L10.18125,13.125 Z M8.7,14.625 C8.53125,14.86875 8.38125,15.1125 8.23125,15.375 L3.5625,15.375 C3.35625,15.375 3.1875,15.20625 3.1875,15 C3.1875,14.79375 3.35625,14.625 3.5625,14.625 L8.7,14.625 Z M7.9125,16.125 C7.81875,16.36875 7.74375,16.6125 7.6875,16.875 L3.5625,16.875 C3.35625,16.875 3.1875,16.70625 3.1875,16.5 C3.1875,16.29375 3.35625,16.125 3.5625,16.125 L7.9125,16.125 Z M3.1875,18 C3.1875,17.79375 3.35625,17.625 3.5625,17.625 L7.5375,17.625 C7.51875,17.86875 7.5,18.1125 7.5,18.375 L3.5625,18.375 C3.35625,18.375 3.1875,18.20625 3.1875,18 Z M19.5,18.375 C19.5,21.4875 16.9875,24 13.875,24 C10.7625,24 8.25,21.4875 8.25,18.375 C8.25,15.2625 10.7625,12.75 13.875,12.75 C16.9875,12.75 19.5,15.2625 19.5,18.375 Z M13.875,23.25 C16.55625,23.25 18.75,21.05625 18.75,18.375 C18.75,15.69375 16.55625,13.5 13.875,13.5 C11.19375,13.5 9,15.69375 9,18.375 C9,21.05625 11.19375,23.25 13.875,23.25 Z M16.425,16.40625 C16.575,16.275 16.85625,16.275 16.9875,16.425 C17.11875,16.575 17.11875,16.8 16.96875,16.95 L13.5375,20.175 L11.2125,18.16875 C11.0625,18.0375 11.04375,17.79375 11.175,17.64375 C11.30625,17.49375 11.55,17.475 11.7,17.60625 L13.5,19.18125 L16.425,16.40625 Z M0,5.3625 L5.4375,0 L15.375,0 C15.80625,0 16.14375,0.3375 16.14375,0.75 L16.14375,12.3375 C15.9,12.24375 15.65625,12.16875 15.39375,12.1125 C15.39375,12.1125 15.4125,0.7125 15.39375,0.7125 L5.64375,0.7125 L5.64375,4.9125 C5.64375,5.325 5.325,5.60625 4.9125,5.60625 L0.75,5.60625 L0.75,21 L8.0625,21 C8.19375,21.2625 8.30625,21.50625 8.45625,21.75 L0.76875,21.75 C0.3375,21.75 0,21.4125 0,21 L0,5.3625 Z M4.875,4.875 L4.875,1.48125 C4.35,2.00625 1.9875,4.36875 1.4625,4.875 L4.875,4.875 Z" id="Combined-Shape" fill="#FFFFFF"></path>
                            <g id="noun_completed_1369998" transform="translate(1.136741, 1.021510)"></g>
                        </g>
                    </g>
                </g>
            </g>
        </g>
    </g>
</svg>