<?xml version="1.0" encoding="UTF-8"?>
<svg width="27px" height="27px" viewBox="0 0 27 27" version="1.1" xmlns="http://www.w3.org/2000/svg" xmlns:xlink="http://www.w3.org/1999/xlink">
    <!-- Generator: Sketch 53.2 (72643) - https://sketchapp.com -->
    <title>icon_support</title>
    <desc>Created with Sketch.</desc>
    <g id="VDs" stroke="none" stroke-width="1" fill="none" fill-rule="evenodd">
        <g id="1_Homepage-Copy-4" transform="translate(-564.000000, -1380.000000)" fill="#FFFFFF">
            <g id="Group-25-Copy" transform="translate(497.000000, 1303.000000)">
                <g id="Group-23" transform="translate(33.000000, 46.000000)">
                    <g id="Group-30" transform="translate(34.000000, 31.000000)">
                        <path d="M21.6063612,11.5779554 C21.6063612,6.77860353 17.7018477,2.87387387 12.9020635,2.87387387 C8.10271166,2.87409007 4.1981982,6.77860353 4.1981982,11.5779554 L4.1981982,12.7426073 L6.52750207,12.7426073 L6.52750207,11.5779554 C6.52750207,8.06302847 9.3871366,5.20317775 12.9022797,5.20317775 C16.4174228,5.20317775 19.2772735,8.06281227 19.2772735,11.5779554 C19.2772735,15.0930985 16.4174228,17.952733 12.9022797,17.952733 L11.5646704,17.952733 L14.1601124,15.3575071 L12.5133417,13.7107364 L8.7670843,17.4559128 L7.11901641,19.1022512 L7.11988119,19.1031159 L7.1192326,19.1037645 L8.76600331,20.7505352 L12.5124769,24.4954955 L14.15968,22.8487248 L11.5932083,20.2820369 L12.9022797,20.2820369 C17.7018477,20.2820369 21.6063612,16.3773072 21.6063612,11.5779554 Z" id="Path"></path>
                    </g>
                </g>
            </g>
        </g>
    </g>
</svg>