<svg xmlns="http://www.w3.org/2000/svg" width="34" height="38" viewBox="0 0 34 38">
    <g fill="none" fill-rule="evenodd">
        <path fill="#E20074" d="M34 25.567V12.434a5 5 0 0 0-2.56-4.365l-12-6.706a5 5 0 0 0-4.879 0l-12 6.706A5 5 0 0 0 0 12.434v13.133a5 5 0 0 0 2.561 4.365l12 6.705a5 5 0 0 0 4.878 0l12-6.705A5 5 0 0 0 34 25.567z"/>
        <path fill="#FFF" d="M11.308 23.03a6.646 6.646 0 0 1-1-3.195H8.384a1.23 1.23 0 1 1 0-.864h1.938a6.645 6.645 0 0 1 1.058-3.112L9.87 14.35a1.23 1.23 0 1 1 .61-.61l1.42 1.42a6.676 6.676 0 0 1 10.163.002l1.423-1.423a1.233 1.233 0 0 1 .504-1.575 1.23 1.23 0 1 1 .106 2.186l-1.51 1.51a6.652 6.652 0 0 1 1.06 3.11h1.937a1.231 1.231 0 1 1 0 .864H23.66a6.646 6.646 0 0 1-.999 3.196.434.434 0 0 1 .07.057l1.563 1.562.04-.017a1.23 1.23 0 0 1 1.339 2.007 1.23 1.23 0 0 1-1.99-1.38l-1.526-1.526a6.67 6.67 0 0 1-5.172 2.45 6.67 6.67 0 0 1-5.172-2.45l-1.525 1.526a1.23 1.23 0 1 1-.611-.61l1.562-1.562a.434.434 0 0 1 .07-.057zm8.857-1.403a.67.67 0 0 0 0-.949l-.43-.27-2.21 1.115a.93.93 0 0 1-1.25 0l-2.21-1.116-.431.271a.67.67 0 0 0 0 .949l2.791 1.409a.67.67 0 0 0 .949 0l2.791-1.409zm0-1.727a.67.67 0 0 0 0-.95l-.43-.27-2.21 1.115a.93.93 0 0 1-1.25 0l-2.21-1.115-.431.27a.67.67 0 0 0 0 .95l2.791 1.408a.67.67 0 0 0 .949 0l2.791-1.408zm0-1.728a.67.67 0 0 0 0-.949l-2.791-1.236a.67.67 0 0 0-.949 0l-2.791 1.236a.67.67 0 0 0 0 .949l2.791 1.409a.67.67 0 0 0 .949 0l2.791-1.409z"/>
    </g>
</svg>
