<?xml version="1.0" encoding="UTF-8"?>
<svg width="79px" height="83px" viewBox="0 0 79 83" version="1.1" xmlns="http://www.w3.org/2000/svg" xmlns:xlink="http://www.w3.org/1999/xlink">
    <!-- Generator: sketchtool 52.6 (67491) - http://www.bohemiancoding.com/sketch -->
    <title>E9C07648-593F-48FC-8D98-EBC5B992EF51</title>
    <desc>Created with sketchtool.</desc>
    <defs>
        <path d="M75.6407968,54.380993 L75.6407968,28.2594582 C75.6407968,23.5438889 73.1247837,19.1862889 69.0415266,16.8291059 L46.4196686,3.7683385 C42.3358099,1.41055383 37.3043853,1.41055383 33.2211282,3.7683385 L10.5992702,16.8291059 C6.51541151,19.1862889 4,23.5438889 4,28.2594582 L4,54.380993 C4,59.0959607 6.51541151,63.4535607 10.5992702,65.8113453 L33.2211282,78.8721127 C37.3043853,81.2292958 42.3358099,81.2292958 46.4196686,78.8721127 L69.0415266,65.8113453 C73.1247837,63.4535607 75.6407968,59.0959607 75.6407968,54.380993" id="path-1"></path>
        <filter x="-25.1%" y="-17.8%" width="150.3%" height="145.8%" filterUnits="objectBoundingBox" id="filter-2">
            <feMorphology radius="1" operator="dilate" in="SourceAlpha" result="shadowSpreadOuter1"></feMorphology>
            <feOffset dx="0" dy="4" in="shadowSpreadOuter1" result="shadowOffsetOuter1"></feOffset>
            <feGaussianBlur stdDeviation="5" in="shadowOffsetOuter1" result="shadowBlurOuter1"></feGaussianBlur>
            <feComposite in="shadowBlurOuter1" in2="SourceAlpha" operator="out" result="shadowBlurOuter1"></feComposite>
            <feColorMatrix values="0 0 0 0 0   0 0 0 0 0   0 0 0 0 0  0 0 0 0.2 0" type="matrix" in="shadowBlurOuter1"></feColorMatrix>
        </filter>
    </defs>
    <g id="Symbols" stroke="none" stroke-width="1" fill="none" fill-rule="evenodd">
        <g id="Icon_DEVTEST-Copy">
            <g id="Icon_DEVTEST">
                <g id="Fill-2">
                    <use fill="black" fill-opacity="1" filter="url(#filter-2)" xlink:href="#path-1"></use>
                    <use stroke="##E20074" stroke-width="2" fill="#E20074" fill-rule="evenodd" xlink:href="#path-1"></use>
                </g>
                <path d="M35.4862968,31.4593917 C35.4862968,32.1982479 34.8873355,32.7972092 34.1484793,32.7972092 C33.4096231,32.7972092 32.8106618,32.1982479 32.8106618,31.4593917 C32.8106618,30.7205355 33.4096231,30.1215742 34.1484793,30.1215742 C34.8873355,30.1215742 35.4862968,30.7205355 35.4862968,31.4593917 Z M28.7972092,30.1215742 C28.058353,30.1215742 27.4593917,30.7205355 27.4593917,31.4593917 C27.4593917,32.1982479 28.058353,32.7972092 28.7972092,32.7972092 C29.5360654,32.7972092 30.1350267,32.1982479 30.1350267,31.4593917 C30.1350267,30.7205355 29.5360654,30.1215742 28.7972092,30.1215742 Z M39.4997494,30.1215742 C38.7608931,30.1215742 38.1619318,30.7205355 38.1619318,31.4593917 C38.1619318,32.1982479 38.7608931,32.7972092 39.4997494,32.7972092 C40.2386056,32.7972092 40.8375669,32.1982479 40.8375669,31.4593917 C40.8375669,30.7205355 40.2386056,30.1215742 39.4997494,30.1215742 Z M55.1076204,30.5675134 L55.1076204,51.9725936 C55.1076204,53.9428769 53.5103902,55.540107 51.540107,55.540107 L26.5675134,55.540107 C24.5972301,55.540107 23,53.9428769 23,51.9725936 L23,29.675635 C23,28.1979226 24.1979226,27 25.675635,27 L51.540107,27 C53.5103902,27 55.1076204,28.5972301 55.1076204,30.5675134 Z M32.6573657,44.8375669 L34.9637631,42.5311695 C35.6527973,41.8333786 35.6492395,40.7102072 34.9557984,40.0167955 C34.2623574,39.3233839 33.1391858,39.3198737 32.4414241,40.0089375 L28.8739108,43.5764509 C28.5393091,43.9108708 28.3513166,44.3645507 28.3513166,44.8376204 C28.3513166,45.3106901 28.5393091,45.7643699 28.8739108,46.0987899 L32.4414241,49.6663033 C33.139215,50.3553374 34.2623864,50.3517796 34.9557981,49.6583385 C35.6492097,48.9648975 35.6527199,47.8417259 34.9636561,47.1439643 L32.6573657,44.8375669 Z M49.2338166,43.5764509 L45.6663033,40.0089375 C44.9685416,39.3198737 43.84537,39.3233839 43.151929,40.0167955 C42.4584879,40.7102072 42.4549301,41.8333786 43.1439643,42.5311695 L45.4502546,44.8375669 L43.1438572,47.1439643 C42.6885658,47.5935803 42.5090196,48.25264 42.6733486,48.871058 C42.8376777,49.4894759 43.3206975,49.9724753 43.9391225,50.1367781 C44.5575475,50.3010809 45.2165995,50.1215067 45.6661962,49.6661962 L49.2337096,46.0986829 C49.5682785,45.7642672 49.7562502,45.3106103 49.7562502,44.8375669 C49.7562502,44.3645234 49.5682785,43.9108665 49.2337096,43.5764509 L49.2338166,43.5764509 Z M53.3238637,30.5675134 C53.3238637,29.5823718 52.5252486,28.7837567 51.540107,28.7837567 L26.5675134,28.7837567 C25.5823718,28.7837567 24.7837567,29.5823718 24.7837567,30.5675134 L24.7837567,34.1350268 L53.3238637,34.1350268 L53.3238637,30.5675134 Z" id="Shape" fill="#FFFFFF" fill-rule="nonzero"></path>
            </g>
        </g>
    </g>
</svg>