<?xml version="1.0" encoding="UTF-8"?>
<svg width="352px" height="131px" viewBox="0 0 352 131" version="1.1" xmlns="http://www.w3.org/2000/svg" xmlns:xlink="http://www.w3.org/1999/xlink">
    <!-- Generator: Sketch 53.2 (72643) - https://sketchapp.com -->
    <title>bg_img_rgt</title>
    <desc>Created with Sketch.</desc>
    <defs>
        <linearGradient x1="76.6219566%" y1="66.2377142%" x2="16.6653878%" y2="-5.31754032%" id="linearGradient-1">
            <stop stop-color="#4A4969" offset="0%"></stop>
            <stop stop-color="#DE0274" offset="55.2917976%"></stop>
            <stop stop-color="#E20074" offset="100%"></stop>
        </linearGradient>
    </defs>
    <g id="Dev-Journey" stroke="none" stroke-width="1" fill="none" fill-rule="evenodd" opacity="0.300000012">
        <g id="1_Homepage-v3" transform="translate(-855.000000, -738.000000)" fill="url(#linearGradient-1)">
            <g id="Group-28" transform="translate(0.000000, 729.000000)">
                <g id="Fill-2-Copy-4">
                    <g id="Group-27" transform="translate(855.000000, 9.000000)">
                        <path d="M352,120.545072 C352,98.8980658 339.637817,78.8943324 319.575136,68.0735913 L208.424864,8.11762715 C188.359227,-2.70587572 163.637817,-2.70587572 143.575136,8.11762715 L32.4248644,68.0735913 C12.3592267,78.8943324 0,98.8980658 0,120.545072 L0,240.457 C0,262.101244 12.3592267,282.104977 32.4248644,292.92848 L143.575136,352.884444 C163.637817,363.705185 188.359227,363.705185 208.424864,352.884444 L319.575136,292.92848 C339.637817,282.104977 352,262.101244 352,240.457 L352,120.545072 Z" id="Fill-2-Copy-5"></path>
                    </g>
                </g>
            </g>
        </g>
    </g>
</svg>