<?xml version="1.0" encoding="UTF-8"?>
<svg width="182px" height="85px" viewBox="0 0 182 85" version="1.1" xmlns="http://www.w3.org/2000/svg" xmlns:xlink="http://www.w3.org/1999/xlink">
    <!-- Generator: Sketch 53.2 (72643) - https://sketchapp.com -->
    <title>bg_img_lft</title>
    <desc>Created with Sketch.</desc>
    <defs>
        <linearGradient x1="-23.2423439%" y1="-62.9610656%" x2="130.051451%" y2="150.822874%" id="linearGradient-1">
            <stop stop-color="#4A4969" offset="0%"></stop>
            <stop stop-color="#DE0274" offset="72.6321914%"></stop>
            <stop stop-color="#E20074" offset="100%"></stop>
        </linearGradient>
    </defs>
    <g id="Dev-Journey" stroke="none" stroke-width="1" fill="none" fill-rule="evenodd" opacity="0.699999988">
        <g id="1_Homepage-v3" transform="translate(-39.000000, -729.000000)" fill="url(#linearGradient-1)">
            <g id="Group-28" transform="translate(0.000000, 729.000000)">
                <g id="Fill-2-Copy-4">
                    <g id="Fill-2-Copy-6" transform="translate(39.000000, -102.000000)">
                        <path d="M182,62.4430149 C182,51.229746 175.60819,40.8677013 165.234871,35.2624974 L107.765129,4.20497583 C97.390282,-1.40165861 84.6081896,-1.40165861 74.2348713,4.20497583 L16.7651287,35.2624974 C6.390282,40.8677013 0,51.229746 0,62.4430149 L0,124.558058 C0,135.769896 6.390282,146.131941 16.7651287,151.738576 L74.2348713,182.796097 C84.6081896,188.401301 97.390282,188.401301 107.765129,182.796097 L165.234871,151.738576 C175.60819,146.131941 182,135.769896 182,124.558058 L182,62.4430149 Z" id="Fill-2-Copy-4" opacity="0.5"></path>
                    </g>
                </g>
            </g>
        </g>
    </g>
</svg>