<?xml version="1.0" encoding="UTF-8"?>
<svg width="86px" height="92px" viewBox="0 0 86 92" version="1.1" xmlns="http://www.w3.org/2000/svg" xmlns:xlink="http://www.w3.org/1999/xlink">
    <!-- Generator: Sketch 52.5 (67469) - http://www.bohemiancoding.com/sketch -->
    <title>hexagon_shape</title>
    <desc>Created with Sketch.</desc>
    <defs>
        <path d="M82,30.0492687 C82,25.0122923 79.2606527,20.357684 74.8149448,17.8398384 L50.1850552,3.88886615 C45.7386923,1.37037795 40.2606527,1.37037795 35.8149448,3.88886615 L11.1850552,17.8398384 C6.73869229,20.357684 4,25.0122923 4,30.0492687 L4,57.9512133 C4,62.987547 6.73869229,67.6421554 11.1850552,70.1606436 L35.8149448,84.1116158 C40.2606527,86.6294614 45.7386923,86.6294614 50.1850552,84.1116158 L74.8149448,70.1606436 C79.2606527,67.6421554 82,62.987547 82,57.9512133 L82,30.0492687 Z" id="path-1"></path>
        <filter x="-9.0%" y="-6.0%" width="117.9%" height="116.7%" filterUnits="objectBoundingBox" id="filter-2">
            <feOffset dx="0" dy="2" in="SourceAlpha" result="shadowOffsetOuter1"></feOffset>
            <feGaussianBlur stdDeviation="2" in="shadowOffsetOuter1" result="shadowBlurOuter1"></feGaussianBlur>
            <feColorMatrix values="0 0 0 0 0   0 0 0 0 0   0 0 0 0 0  0 0 0 0.1 0" type="matrix" in="shadowBlurOuter1"></feColorMatrix>
        </filter>
    </defs>
    <g id="VDs" stroke="none" stroke-width="1" fill="none" fill-rule="evenodd">
        <g id="1_Homepage_4" transform="translate(-728.000000, -1380.000000)">
            <g id="Group-32" transform="translate(728.000000, 1380.000000)">
                <g id="Fill-2">
                    <use fill="black" fill-opacity="1" filter="url(#filter-2)" xlink:href="#path-1"></use>
                    <use fill="#C6A79D" fill-rule="evenodd" xlink:href="#path-1"></use>
                </g>
            </g>
        </g>
    </g>
</svg>