<?xml version="1.0" encoding="UTF-8"?>
<svg width="20px" height="21px" viewBox="0 0 20 21" version="1.1" xmlns="http://www.w3.org/2000/svg" xmlns:xlink="http://www.w3.org/1999/xlink">
    <!-- Generator: sketchtool 52.5 (67469) - http://www.bohemiancoding.com/sketch -->
    <title>FBFCB5B7-F630-40FA-9947-62C177BE6366</title>
    <desc>Created with sketchtool.</desc>
    <g id="Symbols" stroke="none" stroke-width="1" fill="none" fill-rule="evenodd">
        <g id="Header_Menus/PreLogin" transform="translate(-799.000000, -14.000000)" fill="#FFFFFF" fill-rule="nonzero">
            <g id="icon_eventcalendar" transform="translate(799.000000, 14.000000)">
                <path d="M16.2179487,2.34935897 C18.0093339,2.34935897 19.4615385,3.86757287 19.4615385,5.74038462 L19.4615385,17.6089744 C19.4615385,19.4817861 18.0093339,21 16.2179487,21 L3.24358974,21 C1.45220459,21 2.80844436e-13,19.4817861 2.80664381e-13,17.6089744 L2.80664381e-13,5.74038462 C2.80844436e-13,3.86757287 1.45220459,2.34935897 3.24358974,2.34935897 L4.05448718,2.34935897 L4.05448718,1.50160256 C4.05448718,1.03339963 4.41753833,0.653846154 4.86538462,0.653846154 C5.3132309,0.653846154 5.67628205,1.03339963 5.67628205,1.50160256 L5.67628205,2.34935897 L8.91987179,2.34935897 L8.91987179,1.50160256 C8.91987179,1.03339963 9.28292294,0.653846154 9.73076923,0.653846154 C10.1786155,0.653846154 10.5416667,1.03339963 10.5416667,1.50160256 L10.5416667,2.34935897 L13.7852564,2.34935897 L13.7852564,1.50160256 C13.7852564,1.03339963 14.1483076,0.653846154 14.5961538,0.653846154 C15.0440001,0.653846154 15.4070513,1.03339963 15.4070513,1.50160256 L15.4070513,2.34935897 L16.2179487,2.34935897 Z M3.24358974,4.04487179 C2.34789717,4.04487179 1.62179487,4.80397874 1.62179487,5.74038462 L1.62179487,7.43589744 L17.8397436,7.43589744 L17.8397436,5.74038462 C17.8397436,4.80397874 17.1136413,4.04487179 16.2179487,4.04487179 L15.4070513,4.04487179 L15.4070513,4.89262821 C15.4070513,5.36083114 15.0440001,5.74038462 14.5961538,5.74038462 C14.1483076,5.74038462 13.7852564,5.36083114 13.7852564,4.89262821 L13.7852564,4.04487179 L10.5416667,4.04487179 L10.5416667,4.89262821 C10.5416667,5.36083114 10.1786155,5.74038462 9.73076923,5.74038462 C9.28292294,5.74038462 8.91987179,5.36083114 8.91987179,4.89262821 L8.91987179,4.04487179 L5.67628205,4.04487179 L5.67628205,4.89262821 C5.67628205,5.36083114 5.3132309,5.74038462 4.86538462,5.74038462 C4.41753833,5.74038462 4.05448718,5.36083114 4.05448718,4.89262821 L4.05448718,4.04487179 L3.24358974,4.04487179 Z M16.2179487,19.3044872 C17.1136413,19.3044872 17.8397436,18.5453802 17.8397436,17.6089744 L17.8397436,9.13141026 L1.62179487,9.13141026 L1.62179487,17.6089744 C1.62179487,18.5453802 2.34789717,19.3044872 3.24358974,19.3044872 L16.2179487,19.3044872 Z M4.86538462,13.3701923 C4.41753833,13.3701923 4.05448718,12.9906388 4.05448718,12.5224359 C4.05448718,12.054233 4.41753833,11.6746795 4.86538462,11.6746795 C5.3132309,11.6746795 5.67628205,12.054233 5.67628205,12.5224359 C5.67628205,12.9906388 5.3132309,13.3701923 4.86538462,13.3701923 Z M4.86538462,16.7612179 C4.41753833,16.7612179 4.05448718,16.3816645 4.05448718,15.9134615 C4.05448718,15.4452586 4.41753833,15.0657051 4.86538462,15.0657051 C5.3132309,15.0657051 5.67628205,15.4452586 5.67628205,15.9134615 C5.67628205,16.3816645 5.3132309,16.7612179 4.86538462,16.7612179 Z M8.10897436,13.3701923 C7.66112807,13.3701923 7.29807692,12.9906388 7.29807692,12.5224359 C7.29807692,12.054233 7.66112807,11.6746795 8.10897436,11.6746795 C8.55682065,11.6746795 8.91987179,12.054233 8.91987179,12.5224359 C8.91987179,12.9906388 8.55682065,13.3701923 8.10897436,13.3701923 Z M8.10897436,16.7612179 C7.66112807,16.7612179 7.29807692,16.3816645 7.29807692,15.9134615 C7.29807692,15.4452586 7.66112807,15.0657051 8.10897436,15.0657051 C8.55682065,15.0657051 8.91987179,15.4452586 8.91987179,15.9134615 C8.91987179,16.3816645 8.55682065,16.7612179 8.10897436,16.7612179 Z M11.3525641,13.3701923 C10.9047178,13.3701923 10.5416667,12.9906388 10.5416667,12.5224359 C10.5416667,12.054233 10.9047178,11.6746795 11.3525641,11.6746795 C11.8004104,11.6746795 12.1634615,12.054233 12.1634615,12.5224359 C12.1634615,12.9906388 11.8004104,13.3701923 11.3525641,13.3701923 Z M11.3525641,16.7612179 C10.9047178,16.7612179 10.5416667,16.3816645 10.5416667,15.9134615 C10.5416667,15.4452586 10.9047178,15.0657051 11.3525641,15.0657051 C11.8004104,15.0657051 12.1634615,15.4452586 12.1634615,15.9134615 C12.1634615,16.3816645 11.8004104,16.7612179 11.3525641,16.7612179 Z M14.5961538,13.3701923 C14.1483076,13.3701923 13.7852564,12.9906388 13.7852564,12.5224359 C13.7852564,12.054233 14.1483076,11.6746795 14.5961538,11.6746795 C15.0440001,11.6746795 15.4070513,12.054233 15.4070513,12.5224359 C15.4070513,12.9906388 15.0440001,13.3701923 14.5961538,13.3701923 Z M14.5961538,16.7612179 C14.1483076,16.7612179 13.7852564,16.3816645 13.7852564,15.9134615 C13.7852564,15.4452586 14.1483076,15.0657051 14.5961538,15.0657051 C15.0440001,15.0657051 15.4070513,15.4452586 15.4070513,15.9134615 C15.4070513,16.3816645 15.0440001,16.7612179 14.5961538,16.7612179 Z"></path>
            </g>
        </g>
    </g>
</svg>