<svg xmlns="http://www.w3.org/2000/svg" width="20" height="20" viewBox="0 0 20 20">
    <g fill="none" fill-rule="evenodd">
        <path fill="#FFF" stroke="#D6D6D6" d="M-90-19.5a2.5 2.5 0 0 0-2.5 2.5v54a2.5 2.5 0 0 0 2.5 2.5h828a3.5 3.5 0 0 0 3.5-3.5v-53a2.5 2.5 0 0 0-2.5-2.5H-90z"/>
        <path fill="#4A4E57" fill-rule="nonzero" d="M14.989.188a.687.687 0 0 0-.943 0l-4.69 4.69L5.056.58a.697.697 0 0 0-.48-.197L.909.434a.667.667 0 0 0-.663.647L.102 4.838a.667.667 0 0 0 .197.496l4.31 4.29-4.413 4.417a.667.667 0 0 0 0 .943l4.523 4.524a.667.667 0 0 0 .943 0l4.43-4.427 3.867 3.843a.667.667 0 0 0 .943-.006l3.747-3.807a.667.667 0 0 0 0-.94l-3.813-3.823 4.666-4.694a.667.667 0 0 0 0-.943L14.99.188zM1.446 4.598l.11-2.85 2.756-.037 4.1 4.1-2.86 2.87-4.106-4.083zm12.98 12.91l-1.364-1.354 2.84-2.84 1.334 1.334-2.81 2.86zm.533-5.137l-2.843 2.843-1.08-1.08 2.843-2.843 1.08 1.08zm-9.77 5.71l-3.58-3.57 2.227-2.213 2.333 2.36.943-.944-2.356-2.356.936-.944 1.667 1.777.977-.91-1.7-1.797.956-.953 2.357 2.357.943-.944-2.356-2.36.823-.836 1.667 1.776.976-.91-1.7-1.796 1.06-1.07 2.357 2.356.943-.943-2.356-2.347 2.196-2.213L18.1 5.184 5.189 18.081z"/>
    </g>
</svg>
