<svg xmlns="http://www.w3.org/2000/svg" width="20" height="19" viewBox="0 0 20 19">
    <path fill="#ffffff" fill-rule="nonzero" stroke="#ffffff" stroke-width=".5" d="M8.96 1a7.958 7.958 0 0 0-4.292 14.662 7.957 7.957 0 0 0 9.518-.703L18.222 19l.778-.779-4.04-4.038A7.954 7.954 0 0 0 8.96 1zM2 9.014a7.001 7.001 0 0 1 12.98-3.652 6.995 6.995 0 0 1-.87 8.418l-.34.34A7 7 0 0 1 2 9.014z"/>
</svg>
