<?xml version="1.0" encoding="UTF-8"?>
<svg width="94px" height="103px" viewBox="0 0 94 103" version="1.1" xmlns="http://www.w3.org/2000/svg" xmlns:xlink="http://www.w3.org/1999/xlink">
    <!-- Generator: sketchtool 52.6 (67491) - http://www.bohemiancoding.com/sketch -->
    <title>B9C5B8A3-885A-48A8-9D7C-61D989834965</title>
    <desc>Created with sketchtool.</desc>
    <defs>
        <path d="M78.4234234,56.5261271 L78.4234234,32.8256337 C78.4234234,28.5471209 76.1960031,24.5933995 72.5811055,22.454689 L52.5540296,10.6044423 C48.9385994,8.4651859 44.4842914,8.4651859 40.8693938,10.6044423 L20.8423179,22.454689 C17.2268877,24.5933995 15,28.5471209 15,32.8256337 L15,56.5261271 C15,60.804094 17.2268877,64.7578154 20.8423179,66.8970717 L40.8693938,78.7473185 C44.4842914,80.886029 48.9385994,80.886029 52.5540296,78.7473185 L72.5811055,66.8970717 C76.1960031,64.7578154 78.4234234,60.804094 78.4234234,56.5261271" id="path-1"></path>
        <filter x="-41.8%" y="-25.9%" width="183.6%" height="174.3%" filterUnits="objectBoundingBox" id="filter-2">
            <feOffset dx="0" dy="8" in="SourceAlpha" result="shadowOffsetOuter1"></feOffset>
            <feGaussianBlur stdDeviation="7.5" in="shadowOffsetOuter1" result="shadowBlurOuter1"></feGaussianBlur>
            <feColorMatrix values="0 0 0 0 0.945098039   0 0 0 0 0.0588235294   0 0 0 0 0.521568627  0 0 0 0.3 0" type="matrix" in="shadowBlurOuter1"></feColorMatrix>
        </filter>
    </defs>
    <g id="VDs" stroke="none" stroke-width="1" fill="none" fill-rule="evenodd">
        <g id="1_Homepage-Copy" transform="translate(-101.000000, -1349.000000)">
            <g id="Group-25-Copy-2" transform="translate(69.000000, 1303.000000)">
                <g id="icon_2" transform="translate(32.000000, 46.000000)">
                    <g id="Fill-2">
                        <use fill="black" fill-opacity="1" filter="url(#filter-2)" xlink:href="#path-1"></use>
                        <use fill="#F10F85" fill-rule="evenodd" xlink:href="#path-1"></use>
                    </g>
                    <g id="noun_Security_1406872" transform="translate(36.000000, 29.000000)" fill="#FFFFFF" fill-rule="nonzero">
                        <g id="Group">
                            <path d="M10.4591837,-8.52651283e-14 C14.0873016,0.0283446712 17.0351474,2.97619048 17.0068027,6.60430839 L17.0068027,10.3741497 L18.3673469,10.3741497 C19.7845805,10.3741497 20.9183673,11.5079365 20.9183673,12.9251701 L20.9183673,22.4489796 C20.9183673,23.8662132 19.7845805,25 18.3673469,25 L2.55102041,25 C1.13378685,25 9.23705556e-14,23.8662132 9.23705556e-14,22.4489796 L9.23705556e-14,12.9251701 C9.23705556e-14,11.5079365 1.13378685,10.3741497 2.55102041,10.3741497 L3.91156463,10.3741497 L3.91156463,6.60430839 C3.88321995,2.97619048 6.83106576,0.0283446712 10.4591837,-8.52651283e-14 Z M5.6122449,6.60430839 L5.6122449,10.345805 L15.2777778,10.345805 L15.2777778,6.57596372 C15.3061224,6.32086168 15.3061224,6.09410431 15.2777778,5.83900227 C15.0510204,3.17460317 12.7267574,1.19047619 10.0623583,1.38888889 C7.39795918,1.61564626 5.4138322,3.9399093 5.6122449,6.60430839 Z M19.2176871,12.9251701 C19.2176871,12.4433107 18.8492063,12.0748299 18.3673469,12.0748299 L2.55102041,12.0748299 C2.069161,12.0748299 1.70068027,12.4433107 1.70068027,12.9251701 L1.70068027,22.4489796 C1.70068027,22.930839 2.069161,23.2993197 2.55102041,23.2993197 L18.3673469,23.2993197 C18.8492063,23.2993197 19.2176871,22.930839 19.2176871,22.4489796 L19.2176871,12.9251701 Z M9.60884354,19.2743764 C8.7585034,18.9909297 8.10657596,18.3390023 7.85147392,17.5170068 C7.36961451,16.0714286 8.16326531,14.5408163 9.60884354,14.0589569 C11.0544218,13.5770975 12.585034,14.3707483 13.0668934,15.8163265 C13.5487528,17.2619048 12.755102,18.792517 11.3095238,19.2743764 L11.3095238,20.8900227 C11.3095238,21.3718821 10.9410431,21.7403628 10.4591837,21.7403628 C9.97732426,21.7403628 9.60884354,21.3718821 9.60884354,20.8900227 L9.60884354,19.2743764 Z" id="Combined-Shape"></path>
                        </g>
                    </g>
                    <path d="M78.5585586,11.5214854 L78.5585586,5.77591119 C78.5585586,4.73869597 78.0017035,3.78021807 77.0979791,3.26174279 L72.0912101,0.388955707 C71.1873526,-0.129651902 70.0737756,-0.129651902 69.1700512,0.388955707 L64.1632822,3.26174279 C63.2594246,3.78021807 62.7027027,4.73869597 62.7027027,5.77591119 L62.7027027,11.5214854 C62.7027027,12.5585682 63.2594246,13.5170461 64.1632822,14.0356538 L69.1700512,16.9084408 C70.0737756,17.4269161 71.1873526,17.4269161 72.0912101,16.9084408 L77.0979791,14.0356538 C78.0017035,13.5170461 78.5585586,12.5585682 78.5585586,11.5214854" id="Fill-2-Copy" fill="#FF8880"></path>
                    <path d="M8.64864865,57.2408046 L8.64864865,54.1286186 C8.64864865,53.5667937 8.34490951,53.0476181 7.85196893,52.7667773 L5.12100404,51.2106843 C4.62799083,50.9297719 4.02058519,50.9297719 3.52764461,51.2106843 L0.796679714,52.7667773 C0.303666504,53.0476181 0,53.5667937 0,54.1286186 L0,57.2408046 C0,57.8025578 0.303666504,58.3217333 0.796679714,58.6026458 L3.52764461,60.1587388 C4.02058519,60.4395796 4.62799083,60.4395796 5.12100404,60.1587388 L7.85196893,58.6026458 C8.34490951,58.3217333 8.64864865,57.8025578 8.64864865,57.2408046" id="Fill-2-Copy-2" fill="#FF4961"></path>
                    <path d="M93.6486486,82.2408046 L93.6486486,79.1286186 C93.6486486,78.5667937 93.3449095,78.0476181 92.8519689,77.7667773 L90.121004,76.2106843 C89.6279908,75.9297719 89.0205852,75.9297719 88.5276446,76.2106843 L85.7966797,77.7667773 C85.3036665,78.0476181 85,78.5667937 85,79.1286186 L85,82.2408046 C85,82.8025578 85.3036665,83.3217333 85.7966797,83.6026458 L88.5276446,85.1587388 C89.0205852,85.4395796 89.6279908,85.4395796 90.121004,85.1587388 L92.8519689,83.6026458 C93.3449095,83.3217333 93.6486486,82.8025578 93.6486486,82.2408046" id="Fill-2-Copy-3" fill="#BF8082"></path>
                </g>
            </g>
        </g>
    </g>
</svg>