<?xml version="1.0" encoding="UTF-8"?>
<svg width="14px" height="15px" viewBox="0 0 14 15" version="1.1" xmlns="http://www.w3.org/2000/svg" xmlns:xlink="http://www.w3.org/1999/xlink">
    <!-- Generator: sketchtool 52.5 (67469) - http://www.bohemiancoding.com/sketch -->
    <title>2A45D862-ED82-4772-953A-431602901E57</title>
    <desc>Created with sketchtool.</desc>
    <g id="Symbols" stroke="none" stroke-width="1" fill="none" fill-rule="evenodd">
        <g id="Events_Small" transform="translate(-18.000000, -107.000000)" fill="#4A4E57">
            <g id="Group-4-Copy">
                <g id="Rectangle-Copy-2">
                    <g id="Group-2" transform="translate(18.000000, 107.000000)">
                        <path d="M12,5.1 L12,3.6 C12,3.26862915 11.7313708,3 11.4,3 L10.2,3 L10.2,3.3 C10.2,3.63137085 9.93137085,3.9 9.6,3.9 C9.26862915,3.9 9,3.63137085 9,3.3 L9,3 L4.2,3 L4.2,3.3 C4.2,3.63137085 3.93137085,3.9 3.6,3.9 C3.26862915,3.9 3,3.63137085 3,3.3 L3,3 L1.8,3 C1.46862915,3 1.2,3.26862915 1.2,3.6 L1.2,5.1 L12,5.1 Z M12,6.3 L1.2,6.3 L1.2,13.2 C1.2,13.5313708 1.46862915,13.8 1.8,13.8 L11.4,13.8 C11.7313708,13.8 12,13.5313708 12,13.2 L12,6.3 Z M3,1.8 L3,0.6 C3,0.26862915 3.26862915,4.57411886e-14 3.6,4.57411886e-14 C3.93137085,4.57411886e-14 4.2,0.26862915 4.2,0.6 L4.2,1.8 L9,1.8 L9,0.6 C9,0.26862915 9.26862915,4.57411886e-14 9.6,4.57411886e-14 C9.93137085,4.57411886e-14 10.2,0.26862915 10.2,0.6 L10.2,1.8 L11.4,1.8 C12.3941125,1.8 13.2,2.60588745 13.2,3.6 L13.2,13.2 C13.2,14.1941125 12.3941125,15 11.4,15 L1.8,15 C0.80588745,15 3.63264974e-13,14.1941125 3.63264974e-13,13.2 L3.63264974e-13,3.6 C3.63264974e-13,2.60588745 0.80588745,1.8 1.8,1.8 L3,1.8 Z M3.6,12 C3.35810658,11.9989844 3.14048091,11.8528122 3.04804962,11.6292727 C2.95561832,11.4057332 3.00646151,11.148552 3.177,10.977 C3.41102247,10.7443658 3.78897753,10.7443658 4.023,10.977 C4.19353849,11.148552 4.24438168,11.4057332 4.15195038,11.6292727 C4.05951909,11.8528122 3.84189342,11.9989844 3.6,12 Z M9.6,12 C9.35810658,11.9989844 9.14048091,11.8528122 9.04804962,11.6292727 C8.95561832,11.4057332 9.00646151,11.148552 9.177,10.977 C9.41102247,10.7443658 9.78897753,10.7443658 10.023,10.977 C10.1935385,11.148552 10.2443817,11.4057332 10.1519504,11.6292727 C10.0595191,11.8528122 9.84189342,11.9989844 9.6,12 Z M3.6,9.3 C3.35756094,9.30019226 3.13882921,9.15446346 3.04563,8.93065408 C2.95243078,8.70684469 3.00308033,8.44893953 3.174,8.277 C3.41221818,8.0518489 3.78478182,8.0518489 4.023,8.277 C4.19353849,8.44855197 4.24438168,8.70573323 4.15195038,8.92927274 C4.05951909,9.15281225 3.84189342,9.29898439 3.6,9.3 Z M6.6,12 C6.35756094,12.0001923 6.13882921,11.8544635 6.04563,11.6306541 C5.95243078,11.4068447 6.00308033,11.1489395 6.174,10.977 C6.41280975,10.753341 6.78419025,10.753341 7.023,10.977 C7.13567634,11.0890051 7.19933016,11.2411269 7.2,11.4 C7.2,11.7313708 6.93137085,12 6.6,12 Z M6.6,9.3 C6.35756094,9.30019226 6.13882921,9.15446346 6.04563,8.93065408 C5.95243078,8.70684469 6.00308033,8.44893953 6.174,8.277 C6.41221818,8.0518489 6.78478182,8.0518489 7.023,8.277 C7.19353849,8.44855197 7.24438168,8.70573323 7.15195038,8.92927274 C7.05951909,9.15281225 6.84189342,9.29898439 6.6,9.3 Z M9.6,9.3 C9.26862915,9.3 9,9.03137085 9,8.7 C8.99987356,8.54155649 9.06242373,8.38949488 9.174,8.277 C9.41221818,8.0518489 9.78478182,8.0518489 10.023,8.277 C10.1935385,8.44855197 10.2443817,8.70573323 10.1519504,8.92927274 C10.0595191,9.15281225 9.84189342,9.29898439 9.6,9.3 Z" id="icon_calendar"></path>
                    </g>
                </g>
            </g>
        </g>
    </g>
</svg>