<?xml version="1.0" encoding="UTF-8"?>
<svg width="52px" height="47px" viewBox="0 0 52 47" version="1.1" xmlns="http://www.w3.org/2000/svg" xmlns:xlink="http://www.w3.org/1999/xlink">
    <!-- Generator: Sketch 54.1 (76490) - https://sketchapp.com -->
    <title>icon_arrow_low_res</title>
    <desc>Created with Sketch.</desc>
    <defs>
        <path d="M6,4 L41,4 C43.7614237,4 46,6.23857625 46,9 L46,34 C46,36.7614237 43.7614237,39 41,39 L6,39 L6,4 Z" id="path-1"></path>
        <filter x="-25.0%" y="-22.9%" width="150.0%" height="157.1%" filterUnits="objectBoundingBox" id="filter-2">
            <feOffset dx="0" dy="2" in="SourceAlpha" result="shadowOffsetOuter1"></feOffset>
            <feGaussianBlur stdDeviation="3" in="shadowOffsetOuter1" result="shadowBlurOuter1"></feGaussianBlur>
            <feColorMatrix values="0 0 0 0 0   0 0 0 0 0   0 0 0 0 0  0 0 0 0.15 0" type="matrix" in="shadowBlurOuter1"></feColorMatrix>
        </filter>
    </defs>
    <g id="Dev-Journey" stroke="none" stroke-width="1" fill="none" fill-rule="evenodd">
        <g id="Group-15-Copy-2" transform="translate(26.000000, 23.500000) scale(-1, 1) translate(-26.000000, -23.500000) ">
            <g id="Group-39">
                <g id="Rectangle-Copy" transform="translate(26.000000, 21.500000) scale(-1, 1) translate(-26.000000, -21.500000) ">
                    <use fill="black" fill-opacity="1" filter="url(#filter-2)" xlink:href="#path-1"></use>
                    <use fill="#E20074" fill-rule="evenodd" xlink:href="#path-1"></use>
                </g>
                <g id="Group-40" transform="translate(20.000000, 16.000000)" fill="#FFFFFF" fill-rule="nonzero">
                    <path d="M12.5454545,11.7575758 C12.3838384,11.9191919 12.1818182,12 11.979798,12 C11.7777778,12 11.5757576,11.9191919 11.4141414,11.7575758 L6.24242424,6.58585859 C5.91919192,6.26262626 5.91919192,5.77777778 6.24242424,5.45454545 L11.4141414,0.242424242 C11.7373737,-0.0808080808 12.2222222,-0.0808080808 12.5454545,0.242424242 C12.8686869,0.565656566 12.8686869,1.05050505 12.5454545,1.37373737 L7.93939394,5.97979798 L12.5454545,10.5858586 C12.8686869,10.9090909 12.8686869,11.4343434 12.5454545,11.7575758 Z M6.54545455,11.7575758 C6.38383838,11.9191919 6.18181818,12 5.97979798,12 C5.77777778,12 5.57575758,11.9191919 5.41414141,11.7575758 L0.242424242,6.58585859 C-0.0808080808,6.26262626 -0.0808080808,5.77777778 0.242424242,5.45454545 L5.41414141,0.242424242 C5.73737374,-0.0808080808 6.22222222,-0.0808080808 6.54545455,0.242424242 C6.86868687,0.565656566 6.86868687,1.05050505 6.54545455,1.37373737 L1.93939394,5.97979798 L6.54545455,10.5858586 C6.86868687,10.9090909 6.86868687,11.4343434 6.54545455,11.7575758 Z" id="Combined-Shape"></path>
                </g>
            </g>
        </g>
    </g>
</svg>